<?xml version="1.0" encoding="UTF-8" standalone="no"?>
<svg
   xmlns:dc="http://purl.org/dc/elements/1.1/"
   xmlns:cc="http://creativecommons.org/ns#"
   xmlns:rdf="http://www.w3.org/1999/02/22-rdf-syntax-ns#"
   xmlns:svg="http://www.w3.org/2000/svg"
   xmlns="http://www.w3.org/2000/svg"
   xmlns:sodipodi="http://sodipodi.sourceforge.net/DTD/sodipodi-0.dtd"
   xmlns:inkscape="http://www.inkscape.org/namespaces/inkscape"
   inkscape:export-ydpi="768"
   inkscape:export-xdpi="768"
   inkscape:export-filename="icon.png"
   inkscape:version="1.0 (4035a4fb49, 2020-05-01)"
   sodipodi:docname="icon.svg"
   id="svg8"
   version="1.1"
   enable-background="new 0 0 16 16"
   viewBox="0 0 16 16">
  <metadata
     id="metadata14">
    <rdf:RDF>
      <cc:Work
         rdf:about="">
        <dc:format>image/svg+xml</dc:format>
        <dc:type
           rdf:resource="http://purl.org/dc/dcmitype/StillImage" />
        <dc:title></dc:title>
      </cc:Work>
    </rdf:RDF>
  </metadata>
  <defs
     id="defs12" />
  <sodipodi:namedview
     inkscape:bbox-nodes="true"
     inkscape:snap-bbox="true"
     inkscape:document-rotation="0"
     inkscape:current-layer="svg8"
     inkscape:window-maximized="1"
     inkscape:window-y="-8"
     inkscape:window-x="-8"
     inkscape:cy="8"
     inkscape:cx="8"
     inkscape:zoom="76.8125"
     showgrid="true"
     id="namedview10"
     inkscape:window-height="1377"
     inkscape:window-width="2560"
     inkscape:pageshadow="2"
     inkscape:pageopacity="0"
     guidetolerance="10"
     gridtolerance="10"
     objecttolerance="10"
     borderopacity="1"
     bordercolor="#666666"
     pagecolor="#ffffff">
    <inkscape:grid
       id="grid855"
       type="xygrid" />
  </sodipodi:namedview>
  <style
     id="style2"
     type="text/css">.icon-canvas-transparent{opacity:0;fill:#F6F6F6;} .icon-vs-out{fill:#F6F6F6;} .icon-vs-bg{fill:#424242;} .icon-vs-fg{fill:#F0EFF1;}</style>
  <path
     id="canvas"
     d="M16 16h-16v-16h16v16z"
     class="icon-canvas-transparent" />
  <path
     id="outline"
     d="M0 15v-14h16v14h-16z"
     class="icon-vs-out" />
  <path
     sodipodi:nodetypes="ccccc"
     style="fill:#840000;fill-opacity:1"
     inkscape:connector-curvature="0"
     id="iconBg"
     d="M 1,2 V 14 H 15 V 2 Z"
     class="icon-vs-bg" />
  <g
     id="g874">
    <path
       sodipodi:nodetypes="ccccc"
       style="fill:#848400;stroke-width:0.925819;fill-opacity:1"
       inkscape:connector-curvature="0"
       id="path857"
       d="M 3,2 V 14 H 15 V 2 Z"
       class="icon-vs-bg" />
  </g>
  <path
     sodipodi:nodetypes="ccccc"
     style="fill:#008400;fill-opacity:1;stroke-width:0.845153"
     inkscape:connector-curvature="0"
     id="path863"
     d="M 5,2 V 14 H 15 V 2 Z"
     class="icon-vs-bg" />
  <path
     class="icon-vs-bg"
     d="m 7,2 v 12 h 8 V 2 Z"
     id="path865"
     inkscape:connector-curvature="0"
     style="fill:#008484;fill-opacity:1;stroke-width:0.755928"
     sodipodi:nodetypes="ccccc" />
  <path
     sodipodi:nodetypes="ccccc"
     style="fill:#000084;fill-opacity:1;stroke-width:0.654653"
     inkscape:connector-curvature="0"
     id="path867"
     d="m 9,2 v 12 h 6 V 2 Z"
     class="icon-vs-bg" />
  <path
     class="icon-vs-bg"
     d="m 11,2 v 12 h 4 V 2 Z"
     id="path869"
     inkscape:connector-curvature="0"
     style="fill:#840084;fill-opacity:1;stroke-width:0.534522"
     sodipodi:nodetypes="ccccc" />
  <path
     sodipodi:nodetypes="ccccc"
     style="fill:#840000;fill-opacity:1;stroke-width:0.377964"
     inkscape:connector-curvature="0"
     id="path871"
     d="m 13,2 v 12 h 2 V 2 Z"
     class="icon-vs-bg" />
  <path
     sodipodi:nodetypes="cccccssccccssscccccscccccccccc"
     style="fill:#f0eff1;fill-opacity:1"
     id="iconBg-5"
     d="M 12.095,11 10.008,6 h 0.925 l 2.086,5 z M 3.165,8.545 c 0,-1.511 1.05,-2.566 2.552,-2.566 0.688,0 1.063,0.169 1.161,0.221 L 6.951,6.238 6.748,6.924 6.642,6.873 C 6.397,6.753 6.076,6.688 5.738,6.688 c -1.084,0 -1.732,0.687 -1.732,1.836 0,1.119 0.637,1.788 1.705,1.788 0.349,0 0.711,-0.071 0.945,-0.186 l 0.11,-0.054 0.177,0.679 -0.073,0.037 C 6.644,10.9 6.188,11.02 5.585,11.02 4.115,11.021 3.165,10.049 3.165,8.545 Z M 9,8 H 8 V 7 h 1 z m 0,2 H 8 V 9 h 1 z"
     class="icon-vs-bg"
     inkscape:connector-curvature="0" />
  <rect
     y="3"
     x="2"
     height="1"
     width="12"
     id="rect819"
     style="opacity:1;vector-effect:none;fill:#f0eff1;fill-opacity:1;fill-rule:evenodd;stroke:none;stroke-width:0.99999994;stroke-linecap:round;stroke-linejoin:round;stroke-miterlimit:4;stroke-dasharray:none;stroke-dashoffset:0;stroke-opacity:0.49803922" />
</svg>
